[gd_scene load_steps=4 format=2]

[ext_resource path="res://Scenes/KinematicCursor2.gd" type="Script" id=1]
[ext_resource path="res://Sprites/general/flecha dulce.png" type="Texture" id=2]

[sub_resource type="RectangleShape2D" id=1]

custom_solver_bias = 0.0
extents = Vector2( 12.9299, 46.7937 )

[node name="KinematicCursor2" type="KinematicBody2D" index="0"]

position = Vector2( 500, 500 )
input_pickable = false
collision_layer = 1
collision_mask = 1
collision/safe_margin = 0.08
script = ExtResource( 1 )
_sections_unfolded = [ "Pause", "Transform" ]
__meta__ = {
"_edit_group_": true
}

[node name="Sprite" type="Sprite" parent="." index="0"]

rotation = -3.14159
texture = ExtResource( 2 )
offset = Vector2( 40, 0 )
_sections_unfolded = [ "Offset", "Transform" ]

[node name="CollisionShape2D" type="CollisionShape2D" parent="." index="1"]

position = Vector2( -36.0276, 1.73638e-007 )
rotation = 1.5708
scale = Vector2( 1, 0.920224 )
shape = SubResource( 1 )
_sections_unfolded = [ "Transform" ]

[node name="punto_disparo" type="Node2D" parent="." index="2"]

position = Vector2( -50, 0 )
_sections_unfolded = [ "Transform" ]


