[gd_scene load_steps=3 format=2]

[ext_resource path="res://Scenes/Palomita_dulce_1.gd" type="Script" id=1]
[ext_resource path="res://Sprites/dulce/palomita dulce 1.png" type="Texture" id=2]

[node name="Rigid_Palomita_salada_1" type="RigidBody2D" index="0"]

input_pickable = false
collision_layer = 1
collision_mask = 1
mode = 0
mass = 1.0
friction = 1.0
bounce = 0.0
gravity_scale = 1.0
custom_integrator = false
continuous_cd = 0
contacts_reported = 0
contact_monitor = false
sleeping = false
can_sleep = true
linear_velocity = Vector2( 0, 0 )
linear_damp = -1.0
angular_velocity = 0.0
angular_damp = -1.0
script = ExtResource( 1 )
_sections_unfolded = [ "Transform" ]
__meta__ = {
"_edit_group_": true
}

[node name="Sprite" type="Sprite" parent="." index="0"]

texture = ExtResource( 2 )
_sections_unfolded = [ "Transform" ]

[node name="CollisionPolygon2D" type="CollisionPolygon2D" parent="." index="1"]

build_mode = 0
polygon = PoolVector2Array( 10.3108, 10.4689, 10.3108, 12.2593, 1.5293, 12.3446, 2.1261, 11.2362, 1.18827, 10.8099, 1.01775, 7.99644, 0.250439, 7.91118, -0.346363, 6.63232, -1.02843, 7.14387, -1.45471, 7.82593, -1.79574, 8.76376, -2.81883, 9.01953, -3.58615, 8.84902, -4.0977, 7.82593, -5.37656, 8.25221, -5.80285, 7.05861, -6.82594, 7.05861, -7.16697, 3.98934, -7.42274, 3.30728, -9.04263, 3.30728, -9.04263, 1.8579, -10.151, 2.28419, -10.0657, 0.238008, -8.61634, 0.15275, -8.87212, -2.31972, -7.93428, -1.80817, -8.27531, -5.38899, -7.08171, -4.87744, -7.08171, -6.32682, -6.48491, -6.15631, -5.20604, -7.52043, -3.41564, -7.86146, -1.79574, -7.43517, -1.62523, -6.75311, -1.02843, -5.90053, -0.687393, -5.30373, -0.00533676, -4.62167, -0.261108, -3.17229, -0.0905914, -2.06395, 2.1261, -2.06395, 2.1261, -3.51332, 3.14919, -3.7691, 3.06393, -4.9627, 4.17228, -5.30373, 2.80816, -6.07105, 4.08702, -7.34991, 4.00177, -8.88455, 5.36589, -9.82238, 7.92361, -9.48135, 9.37299, -8.20249, 10.2256, -7.43517, 11.3339, -4.9627, 10.9929, 2.71047, 9.37299, 3.05151, 8.69093, 3.30728, 8.43516, 4.84191, 10.3108, 5.69449, 11.3339, 5.69449, 11.2487, 7.4849, 11.2487, 8.0817, 9.9698, 8.16696 )


